…
After cleaning the data according to the instructions, there are also
rows of identical data inputs. We could consider evaluating the
duplicates in a new column to indicate how many times it was repeated.

**Answer the following questions using these data:**

- How many distinct stations are there? Note that stations are
  identified both by name and by line (e.g. 125th St 8th Avenue; 125st
  Broadway; 125st Lenox); the distinct function may be useful here.

``` r
distinct(NYC_Transit_df, line, station_name)
```

    ## # A tibble: 465 × 2
    ##    line     station_name            
    ##    <chr>    <chr>                   
    ##  1 4 Avenue 25th St                 
    ##  2 4 Avenue 36th St                 
    ##  3 4 Avenue 45th St                 
    ##  4 4 Avenue 53rd St                 
    ##  5 4 Avenue 59th St                 
    ##  6 4 Avenue 77th St                 
    ##  7 4 Avenue 86th St                 
    ##  8 4 Avenue 95th St                 
    ##  9 4 Avenue 9th St                  
    ## 10 4 Avenue Atlantic Av-Barclays Ctr
    ## # ℹ 455 more rows
…
``` r
Trash_Tidy_df = 
  bind_rows(Mr_Trash_Wheel_df, Professor_Trash_Wheel_df, Gwynnda_Trash_Wheel_df) %>% 
  janitor::clean_names()

arrange(Trash_Tidy_df, dumpster, wheel_name)
```

    ## # A tibble: 849 × 15
    ##    dumpster month    year  date                weight_tons volume_cubic_yards
    ##       <dbl> <chr>    <chr> <dttm>                    <dbl>              <dbl>
    ##  1        1 July     2021  2021-07-03 00:00:00        0.93                 15
    ##  2        1 May      2014  2014-05-16 00:00:00        4.31                 18
    ##  3        1 January  2017  2017-01-02 00:00:00        1.79                 15
    ##  4        2 July     2021  2021-07-07 00:00:00        2.26                 15
    ##  5        2 May      2014  2014-05-16 00:00:00        2.74                 13
    ##  6        2 January  2017  2017-01-30 00:00:00        1.58                 15
    ##  7        3 July     2021  2021-07-07 00:00:00        1.62                 15
    ##  8        3 May      2014  2014-05-16 00:00:00        3.45                 15
    ##  9        3 February 2017  2017-02-26 00:00:00        2.32                 18
    ## 10        4 July     2021  2021-07-16 00:00:00        1.76                 15
    ## # ℹ 839 more rows
    ## # ℹ 9 more variables: plastic_bottles <dbl>, polystyrene <dbl>,
    ## #   cigarette_butts <dbl>, glass_bottles <dbl>, plastic_bags <dbl>,
    ## #   wrappers <dbl>, sports_balls <int>, homes_powered <dbl>, wheel_name <chr>
…
